<?xml version="1.0" standalone="no"?>
<!DOCTYPE svg PUBLIC "-//W3C//DTD SVG 1.1//EN" "http://www.w3.org/Graphics/SVG/1.1/DTD/svg11.dtd" >
<svg xmlns="http://www.w3.org/2000/svg">
<metadata>Generated by IcoMoon</metadata>
<defs>
<font id="topcat" horiz-adv-x="1024">
<font-face units-per-em="1024" ascent="896" descent="-128" />
<missing-glyph horiz-adv-x="1024" />
<glyph unicode="&#x20;" horiz-adv-x="400" d="" />
<glyph unicode="&#xf100;" glyph-name="uniF100" d="M798.758 23.645h-573.482l40.977 215.57h491.496zM737.326 744.356c45.055 0 81.922-36.832 81.887-81.887v-34.104h-61.465v50.648h-491.53v-50.682h-61.432v34.104c0 45.021 36.865 81.92 81.92 81.92h450.62zM942.114 587.422c45.088 0 81.92-36.9 81.887-81.922v-245.796c0-45.021-36.867-81.955-81.922-81.955h-93.613l-29.217 102.41h-614.46l-29.252-102.41h-93.613c-45.055 0-81.922 36.934-81.922 81.955v245.796c0 45.021 36.867 81.922 81.922 81.922h860.192zM827.402 458.558c16.951 0 30.732 13.715 30.732 30.699 0 17.018-13.748 30.732-30.732 30.732s-30.732-13.715-30.732-30.732c0-16.984 13.781-30.699 30.732-30.699zM916.13 465.398c13.143 0 23.893 10.648 23.893 23.859 0 13.209-10.717 23.893-23.893 23.893s-23.824-10.684-23.824-23.893c0-13.211 10.648-23.859 23.824-23.859z" />
<glyph unicode="&#xf101;" glyph-name="uniF101" d="M215.418-33.014l5.795 94.756h-221.212v384.018l197.678 166.176h79.246l13.861 263.534h442.42l13.871-263.534h79.246l197.682-166.176v-384.022h-221.224l5.797-94.752 0.604-9.625h32.666v-64.834h-659.698v64.834h32.688zM337.74 471.542c-1.586-8.475-2.807-17.068-3.436-25.783-0.412-5.645-0.639-11.324-0.639-17.055 0-6.438 0.344-12.764 0.859-19.051 2.27-27.406 9.338-53.242 20.268-76.467 9.094-19.313 20.863-36.74 34.734-51.775 32.672-35.426 76.939-57.336 125.746-57.336 48.82 0 93.076 21.91 125.738 57.336 13.889 15.035 25.65 32.463 34.752 51.775 10.922 23.209 18 49.045 20.26 76.467 0.508 6.283 0.859 12.613 0.859 19.051 0 5.73-0.217 11.406-0.639 17.055-0.623 8.73-1.869 17.309-3.455 25.783-1.096 5.814-2.396 11.58-3.928 17.26-0.422 1.582-0.828 3.166-1.297 4.742h109.582c9.537 0 17.256 7.729 17.256 17.258 0 9.521-7.719 17.256-17.256 17.256h-80.221l-16.482 312.889h-376.92l-12.066-229.018-4.414-83.871h-80.215c-9.547 0-17.26-7.734-17.26-17.256 0-9.529 7.713-17.258 17.26-17.258h116.125c-0.461-1.576-0.842-3.158-1.279-4.742-1.549-5.68-2.832-11.445-3.934-17.26zM147.631 306.186v86.604h-52.053v-86.604h52.053zM750.902 61.742h-477.804l-5.992-97.906h489.798zM383.8 333.184c-12.471 22.586-20.756 48.531-23.385 76.467-0.582 6.268-0.912 12.615-0.912 19.051 0 5.764 0.295 11.426 0.758 17.055 0.727 8.799 1.963 17.408 3.758 25.785 1.266 5.881 2.836 11.611 4.598 17.258 0.504 1.602 1.051 3.168 1.59 4.742 1.449 4.242 3.033 8.418 4.744 12.516 3.211 7.662 6.867 14.992 10.955 22.002 1.451 2.486 2.883 5.004 4.443 7.398v0c0 0.016 0.016 0.016 0.016 0.035 3.1 4.783 6.42 9.371 9.916 13.762 15.264 21.553 28.588 42.57 40.375 62.676 55.482 94.693 74.588 167.922 74.588 167.922s19.086-73.244 74.604-167.922c11.764-20.105 25.111-41.123 40.346-62.676 3.506-4.391 6.822-8.979 9.926-13.762 0-0.020 0.018-0.020 0.018-0.035v0c1.553-2.395 3.004-4.912 4.451-7.398 4.082-7.010 7.738-14.34 10.955-22.002 1.721-4.098 3.285-8.258 4.734-12.516 0.539-1.574 1.096-3.141 1.602-4.742 1.754-5.645 3.32-11.375 4.586-17.258 1.789-8.373 3.033-17.002 3.758-25.785 0.453-5.625 0.758-11.291 0.758-17.055 0-6.436-0.336-12.779-0.908-19.051-2.578-27.936-10.857-53.883-23.363-76.467-11.293-20.426-26.004-38.090-43.33-51.773-25.062-19.818-55.398-31.449-88.119-31.449s-63.057 11.666-88.119 31.449c-17.344 13.684-32.049 31.346-43.34 51.773zM592.072 538.572c-12.389 14.313-30.506 3.938-34.146-10.508-1.551-6.127-0.539-12.943 4.654-18.969 0.875-0.984 1.482-2.039 2.326-3.031 3.371-4.113 6.574-8.279 9.336-12.516 1.029-1.557 1.785-3.178 2.729-4.744 3.334-5.643 6.148-11.408 8.459-17.258 3.303-8.424 5.744-17.002 7.010-25.785 1.672-11.719 1.467-23.781-0.336-36.107-1.416-9.734-3.641-19.602-7.111-29.662-8.73-25.5 31.516-36.354 40.213-11.074 4.701 13.762 7.531 27.346 9 40.736 1.348 12.254 1.211 24.285-0.119 36.107-0.994 8.732-2.693 17.326-5.139 25.785-1.65 5.832-3.707 11.58-6.066 17.258-0.639 1.582-1.281 3.168-1.988 4.744-1.924 4.205-4.014 8.385-6.305 12.516-4.178 7.516-9.033 14.838-14.459 22-2.65 3.5-5.092 7.088-8.057 10.508z" />
<glyph unicode="&#xf102;" glyph-name="uniF102" d="M256 96v128h512v-320h-512v192zM768 672v-128h-512v320h512v-192zM896 672c64 0 128-64 128-128v-320c0-64-64-128-128-128h-64v192h-640v-192h-64c-64 0-128 64-128 128v320c0 64 64 128 128 128h64v-192h640v192h64z" />
<glyph unicode="&#xf103;" glyph-name="uniF103" d="M179.836 179.707c6.141 13.016 11.328 35.256 11.527 49.682 0.869 56.641 2.551 191.109-0.166 257.302-3.471 85.182 26.096 112.996 26.096 112.996l538.936-11.389c-34.768-6.951-26.068-112.047-26.068-112.047v-307.734c0-14.408-4.699-36.773-10.475-49.945l-11.398-25.941-569.938 44.234zM33.021 532.754v8.701l-16.516-0.426c-9.109-0.254-16.506 8.502-16.506 19.541 0 11.031 7.238 34.219 16.166 51.752l16.342 32.107c8.928 17.545 32.121 31.4 51.793 30.928l904.066-20.969c19.682-0.443 35.639-16.785 35.639-36.457v-68.486c0-19.672-3.135-43.938-6.965-54.203-3.846-10.242-22.898-17.74-42.562-16.732l-86.102 4.439v-251.388h32.607v-31.287l-69.119-95.186h-35.201v22.152l36.768 53.475h-1.566v14.355h-108.412v31.285h108.412v258.496l-104.025 5.369s-16.529 42.545 8.422 72.537l39.227-2.35 21.176 51.465-733.606 17.564-27.426-48.879h134.711c-19.367-8.533-14.758-47.809-14.844-47.809 0 0 0-293.568 0.252-293.376v-46.934l-40.432-31.285-31.287 6.523v14.34l53.633 42.912v307.824h-124.645z" />
<glyph unicode="&#xf104;" glyph-name="uniF104" d="M1024 110.139h-404.838v-71.441h154.791v-71.441h-523.906v71.441h154.791v71.441h-404.838v690.606h1024v-690.606zM476.28 38.697h71.441v71.441h-71.441v-71.441zM71.441 729.302v-547.72h881.118v547.72h-881.118zM439.542 343.76c-5.842-11.527-14.219-21.363-25.129-29.512-10.916-8.141-24.059-14.447-39.428-18.904-15.379-4.453-32.59-6.688-51.648-6.688-46.732 0-83.311 13.682-109.748 41.041l39.66 52.562c8.295-8.609 17.752-15.145 28.357-19.598 10.605-4.459 23.289-6.686 38.043-6.686 34.738 0 52.111 12.754 52.111 38.273 0 13.836-5.154 24.283-15.449 31.357-10.301 7.070-26.516 10.607-48.65 10.607h-13.834v53.029h15.217c17.213 0 30.666 3.531 40.348 10.607 9.688 7.072 14.527 16.445 14.527 28.131 0 10.145-3.537 17.826-10.605 23.057-7.076 5.225-16.453 7.838-28.131 7.838-12.607 0-24.059-2.994-34.354-8.992-10.303-5.992-18.984-14.523-26.053-25.59l-46.576 53.488c4.916 6.459 11.371 12.451 19.367 17.984 7.994 5.533 17.063 10.217 27.209 14.064 10.143 3.84 21.051 6.838 32.742 8.992 11.68 2.146 23.668 3.225 35.969 3.225 16.289 0 31.195-1.922 44.729-5.764 13.521-3.848 25.051-9.381 34.58-16.6 9.529-7.225 16.908-15.838 22.137-25.826 5.225-9.992 7.842-21.135 7.842-33.43 0-9.221-1.465-17.984-4.383-26.283-2.926-8.301-6.996-15.838-12.221-22.596-5.232-6.766-11.457-12.375-18.676-16.83-7.227-4.459-15.146-7.457-23.748-8.992 9.521-1.844 18.285-5.15 26.283-9.912 7.988-4.771 14.826-10.768 20.52-17.984 5.686-7.229 10.066-15.529 13.141-24.902 3.074-9.383 4.615-19.447 4.615-30.207 0-14.451-2.926-27.436-8.764-38.963zM712.506 300.574c-20.506-7.984-43.283-11.973-68.322-11.971h-124.438v333.396h124.438c27.541 0 51.65-4.387 72.314-13.148 20.66-8.768 37.955-20.662 51.889-35.688 13.924-15.029 24.416-32.635 31.457-52.826 7.049-20.195 10.568-41.721 10.568-64.57 0-25.354-3.916-48.291-11.74-68.789-7.828-20.506-19.018-38.035-33.572-52.592-14.561-14.559-32.094-25.826-52.594-33.812zM596.754 554.378v-198.16h47.43c14.084 0 26.604 2.5 37.562 7.514 10.957 5.002 20.111 11.973 27.471 20.895 7.352 8.922 12.986 19.408 16.908 31.463 3.91 12.045 5.869 25.273 5.869 39.676 0 14.713-1.959 28.096-5.869 40.148-3.92 12.047-9.627 22.459-17.139 31.227-7.518 8.762-16.752 15.496-27.705 20.195-10.963 4.695-23.328 7.043-37.098 7.043h-47.43z" />
<glyph unicode="&#xf105;" glyph-name="uniF105" d="M654.29 417.218c-9.711-4.439-20.803-6.658-33.283-6.658h-42.021v175.58h42.021c12.201 0 23.156-2.082 32.869-6.242 9.703-4.16 17.889-10.131 24.547-17.891 6.656-7.77 11.713-16.994 15.188-27.668 3.463-10.682 5.199-22.539 5.199-35.574 0-12.758-1.736-24.48-5.199-35.156-3.475-10.682-8.467-19.969-14.98-27.875-6.52-7.904-14.633-14.082-24.34-18.516zM1024 115.873h-406.454v-70.803h211.094v-115.381h-633.28v115.381h211.092v70.803h-406.454v722.438h1024v-722.438zM459.58 397.66c5.264 10.406 7.906 22.117 7.9 35.16 0 9.707-1.391 18.787-4.16 27.252-2.777 8.459-6.729 15.947-11.857 22.465-5.137 6.518-11.305 11.926-18.516 16.229-7.217 4.299-15.123 7.283-23.717 8.945 7.762 1.385 14.908 4.088 21.43 8.113 6.514 4.020 12.129 9.084 16.848 15.188 4.717 6.098 8.389 12.896 11.027 20.385 2.631 7.49 3.953 15.395 3.953 23.717 0 11.090-2.361 21.148-7.074 30.166-4.719 9.008-11.375 16.775-19.969 23.299-8.602 6.512-19.004 11.506-31.205 14.977-12.207 3.463-25.658 5.203-40.357 5.203-11.096 0-21.916-0.979-32.453-2.914-10.545-1.943-20.387-4.65-29.541-8.113-9.152-3.473-17.334-7.699-24.547-12.689-7.217-4.992-13.041-10.402-17.475-16.229l42.027-48.264c6.379 9.986 14.209 17.682 23.506 23.090 9.291 5.41 19.621 8.115 30.998 8.115 10.537 0 18.994-2.357 25.377-7.072 6.379-4.721 9.572-11.648 9.572-20.805 0-10.541-4.371-19.002-13.107-25.379-8.738-6.385-20.875-9.568-36.406-9.568h-13.73v-47.846h12.482c19.971 0 34.6-3.193 43.896-9.57 9.287-6.385 13.938-15.811 13.938-28.291 0-23.031-15.674-34.537-47.016-34.537-13.314 0-24.758 2.008-34.324 6.035-9.572 4.018-18.102 9.914-25.59 17.682l-35.781-47.43c23.852-24.686 56.855-37.029 99.021-37.029 17.197 0 32.729 2.014 46.6 6.031 13.869 4.025 25.725 9.713 35.574 17.059 9.842 7.352 17.402 16.229 22.676 26.627zM510.752 350.646h110.256c22.188 0 42.369 3.537 60.537 10.609 18.164 7.072 33.701 17.059 46.6 29.959 12.896 12.896 22.811 28.426 29.748 46.598 6.928 18.164 10.402 38.486 10.402 60.953 0 20.246-3.119 39.316-9.361 57.209s-15.539 33.494-27.879 46.809c-12.342 13.313-27.664 23.854-45.973 31.621-18.309 7.762-39.67 11.65-64.074 11.65h-110.256v-295.408z" />
<glyph unicode="&#xf106;" glyph-name="uniF106" d="M449.104 153.139c0 17.012 13.848 30.857 30.857 30.857s30.857-13.846 30.857-30.857c0-17.010-13.848-30.857-30.857-30.857s-30.857 13.848-30.857 30.857zM496.86 153.139c0 9.307-7.574 16.898-16.898 16.898s-16.898-7.574-16.898-16.898 7.574-16.898 16.898-16.898 16.898 7.574 16.898 16.898zM551.614 604.29l25.982-14.125c-0.299 0.131-0.43 0.373-0.709 0.559 0.875-0.539 1.77-1.043 2.811-1.488 0.262-1.545 0.242-3.332 0.428-4.951h-471.102v-347.618h719.224v194.188h2.123c6.346 0 12.078 0.205 17.885 0.428v-204.61c0-5.527-4.486-10.014-10.014-10.014h-739.212c-5.527 0-9.994 4.486-9.994 10.014v367.624c0 5.529 4.467 9.994 9.994 9.994h452.584zM975.928 614.638c0-36.609-12.711-66.797-37.855-89.725-12.301-11.111-26.203-19.338-41.371-24.418-15.076-4.783-33.873-7.203-56.002-7.203h-10.758c-13.977 0-18.945 22.092-18.945 41.037v160.633c0 18.908 4.969 41.037 18.945 41.037h10.758c42.564 0 75.469-10.439 97.82-31.043 24.846-23.078 37.408-53.469 37.408-90.318zM972.448 737.992c34.207-31.23 51.553-72.695 51.553-123.299 0-50.771-18.072-92.516-53.711-123.986-17.83-15.689-36.85-26.781-56.578-32.961-18.332-6.178-43.477-9.176-76.734-9.176h-32.717c-11.428 0-21.721 4.709-29.146 12.266l-39.66 21.551c-3.814-5.582-8.281-10.867-13.324-15.893-20.473-20.25-45.746-30.504-75.133-30.504-19.914 0-38.154 4.057-54.494 11.688-3.723 1.006-7.443 2.104-10.906 3.592-3.406 1.488-6.383 3.35-9.342 5.23 1.246-0.781 2.344-1.73 3.666-2.457l-74.799 40.703c-14.943 8.133-25.348 20.471-30.949 36.775-1.043 3.107-1.545 6.16-1.545 9.287 0 3.162 0.633 6.178 1.619 9.082 0.074 0.223 0.037 0.445 0.131 0.67 0.074 0.186 0.166 0.391 0.26 0.576 0.168 0.41 0.336 0.801 0.521 1.191 0.316 0.67 0.559 1.34 0.912 2.010 0.297 0.502 0.633 1.023 0.967 1.525 0.168 0.299 0.336 0.596 0.541 0.895 0.129 0.242 0.26 0.482 0.428 0.707 0.688 0.967 1.451 1.936 2.27 2.865 0.168 0.188 0.336 0.373 0.521 0.578 0.744 0.799 1.508 1.563 2.289 2.252 1.043 0.949 2.104 1.785 3.201 2.549 0.707 0.484 1.451 0.838 2.178 1.248 0.316 0.166 0.613 0.371 0.949 0.539 0.354 0.186 0.67 0.428 1.023 0.596 2.531 1.191 5.211 1.973 8.004 2.4 1.414 0.186 3.051 0.186 4.744 0.020 0.43-0.057 0.82-0.113 1.266-0.188 0.521-0.092 1.023-0.074 1.564-0.223 1.115-0.279 2.232-0.707 3.387-1.266 0.223-0.111 0.447-0.223 0.67-0.354l53.115-28.885c0.131 0.020 0.242 0 0.373 0.020 2.736 0.408 5.342 1.004 7.91 1.768 0.912 0.297 1.787 0.688 2.68 1.043 1.563 0.576 3.164 1.172 4.652 1.916 1.191 0.576 2.346 1.322 3.48 1.992 1.285 0.762 2.568 1.506 3.797 2.418 0.744 0.559 1.488 1.174 2.232 1.77 1.844 1.506 3.648 3.033 5.398 4.82 2.215 2.27 4.131 4.596 5.787 6.979 0.094 0.131 0.15 0.26 0.242 0.391 1.359 1.955 2.438 4.002 3.406 6.049 0.316 0.65 0.596 1.283 0.855 1.916 0.689 1.619 1.174 3.275 1.602 4.951 0.223 0.838 0.502 1.676 0.67 2.512 0.465 2.477 0.781 4.988 0.781 7.594 0 4.020-0.373 7.705-0.986 11.223-0.969 0.41-1.824 0.893-2.643 1.396 0.26-0.168 0.371-0.391 0.65-0.521l-74.816 40.666c-8.338 4.541-9.9 12.896-9.9 18.609 0 1.117 0.131 2.383 0.316 3.648 0.074 0.391 0.168 0.801 0.242 1.229 0.205 0.967 0.447 1.936 0.801 2.959 0.092 0.299 0.111 0.539 0.223 0.838 0.074 0.205 0.205 0.41 0.279 0.596 0.223 0.576 0.484 1.154 0.764 1.73 0.186 0.391 0.297 0.744 0.52 1.117 0.113 0.279 0.299 0.521 0.447 0.762 0.26 0.43 0.502 0.857 0.801 1.285 0.168 0.297 0.316 0.559 0.502 0.838 0.354 0.502 0.801 1.023 1.209 1.525 0.262 0.336 0.484 0.652 0.764 0.986 0.074 0.094 0.148 0.205 0.242 0.299 0.875 0.986 1.861 1.99 2.959 2.977 0.037 0.020 0.074 0.057 0.074 0.074 0.521 0.447 1.135 0.875 1.676 1.303 0.893 0.727 1.73 1.434 2.736 2.16 0.055 0.037 0.166 0.111 0.223 0.148 1.75 1.191 3.723 2.363 5.918 3.518l18.164 7.426-63.371 34.467c-1.805 0.969-3.479 2.252-5.043 3.797-4.727 4.729-7.072 10.926-7.053 18.035 0 3.127 0.633 6.271 1.748 9.416 0.037 0.111 0.020 0.242 0.076 0.354 0.037 0.094 0.074 0.15 0.092 0.225 0.223 0.576 0.521 1.172 0.764 1.73 0.391 0.893 0.744 1.768 1.191 2.662 0.092 0.223 0.26 0.408 0.391 0.65 0.297 0.502 0.633 1.043 0.967 1.563 0.467 0.727 0.857 1.434 1.359 2.178 0.223 0.316 0.539 0.67 0.781 0.986 0.596 0.783 1.209 1.545 1.861 2.326 0.428 0.541 0.801 1.1 1.266 1.602 0.26 0.297 0.613 0.576 0.875 0.893 1.229 1.34 2.586 2.662 4.002 4.021 0.482 0.428 0.855 0.893 1.34 1.34 0.111 0.092 0.316 0.242 0.465 0.354 3.053 2.734 6.607 5.49 10.516 8.244 0.391 0.242 0.596 0.484 0.986 0.744 1.078 0.744 2.178 1.488 3.293 2.234 4.188 2.754 8.133 5.191 11.93 7.352 1.285 0.762 2.477 1.303 3.723 1.973 2.158 1.172 4.393 2.438 6.422 3.404 0.297 0.131 0.539 0.188 0.836 0.336 2.42 1.117 4.709 1.953 6.998 2.791 1.172 0.428 2.457 1.043 3.611 1.396 3.387 1.098 6.588 1.842 9.641 2.289 5.545 0.764 10.793 1.117 15.893 1.303 1.379 0.037 2.756 0.074 4.096 0.074 4.393 0 8.672-0.205 12.711-0.689 0.613-0.055 1.246-0.055 1.824-0.129 3.684-0.484 7.258-1.135 10.645-2.029 0.596-0.168 1.098-0.447 1.656-0.596 2.625-0.744 5.045-1.75 7.5-2.736 1.564-0.633 3.314-1.041 4.82-1.785 0.82-0.41 1.619-0.838 2.42-1.248l58.271-31.693c3.686-0.801 7.24-1.732 10.701-2.756l0.020 4.84c0 2.717 0.279 5.359 0.762 7.984 0.094 0.633 0.354 1.229 0.504 1.842 0.408 1.879 0.855 3.76 1.508 5.564 0.018 0.074 0.055 0.111 0.092 0.168 0.131 0.428 0.373 0.818 0.521 1.246 0.67 1.602 1.322 3.201 2.141 4.729 0.148 0.279 0.334 0.539 0.502 0.818 0.279 0.484 0.596 0.969 0.893 1.434 0.504 0.855 1.006 1.73 1.564 2.549 0.521 0.744 1.135 1.414 1.676 2.104 0.354 0.447 0.67 0.875 1.023 1.303 0.223 0.242 0.371 0.521 0.613 0.764 1.154 1.34 2.42 2.605 3.723 3.797 0.148 0.129 0.297 0.223 0.447 0.354 0.316 0.26 0.633 0.482 0.947 0.744 1.006 0.818 1.975 1.674 3.035 2.418 0.465 0.299 0.967 0.504 1.432 0.801 0.82 0.541 1.656 0.986 2.494 1.451 0.707 0.355 1.34 0.838 2.029 1.154 0.373 0.188 0.781 0.205 1.172 0.354 3.072 1.322 6.197 2.402 9.512 2.867l29.832 4.188c28.941 4.094 52.334 4.242 69.4 0.408 2.012-0.391 4.002-0.873 5.975-1.377 2.885-0.744 5.752-1.711 8.58-2.697 0.502-0.15 1.023-0.279 1.508-0.467 3.609-1.32 7.203-2.811 10.701-4.541 1.34-0.65 2.68-1.357 4.020-2.064l74.799-40.703c-0.652 0.354-1.34 0.559-1.992 0.893 4.969-2.568 9.771-5.656 14.461-9.025 12.098-6.18 23.6-13.902 34.133-23.506zM710.608 478.088c17.494 17.346 26 37.836 26.037 62.607 0 18.166-4.057 33.371-12.098 45.225-7.982 11.764-20.342 20.826-36.756 26.875l-22.52 8.32 22.873 7.201c2.773 0.875 5.211 1.787 7.369 2.643 22.725 8.99 33.742 27.248 33.742 55.834 0 23.283-7.965 40.609-24.381 52.986-15.613 11.816-37.426 17.791-64.803 17.791-10.404 0-24.27-4.205-41.205-12.469-17.234-8.227-26.707-16.639-26.707-23.729 0-3.238 1.135-5.975 3.592-8.6 2.346-2.494 4.895-3.646 8.041-3.646 0.018 0 1.842 0.092 6.457 3.014l23.172 14.555c10.439 5.416 20.787 8.002 31.359 8.002 19.764 0 35.564-4.43 46.955-13.158 11.688-9.025 17.457-21.049 17.104-35.752-0.168-10.123-3.295-18.945-9.25-26.166-5.695-6.924-14.033-12.432-24.826-16.322l-49.691-12.32c-7.426-2.699-11.576-6.291-11.576-10.459 0-2.848 0-8.748 15.297-10.256 23.619-2.475 42.955-9.604 57.51-21.18 17.158-13.92 25.812-32.662 25.812-55.758 0-16.656-6.979-30.914-20.789-42.303-12.637-10.479-27.525-15.801-44.293-15.801-12.582 0-23.693 1.898-32.941 5.619-9.734 3.891-17.607 9.846-23.395 17.775l-9.641 14.422c-2.717 3.426-5.342 3.928-7.277 3.928-3.498 0-6.365-1.098-9.025-3.424-2.402-2.066-3.463-4.338-3.463-7.426 0-1.396 0.279-2.941 0.818-4.578 5.715-16.006 16.639-28.271 33.334-37.297 15.037-7.873 32.42-11.893 51.57-11.893 25.273 0 46.082 8.412 63.594 25.738zM911.124 776.276c1.080-0.391 2.086-1.006 3.184-1.434-1.508 0.596-2.959 1.303-4.486 1.861 0.43-0.168 0.895-0.26 1.303-0.428zM959.458 502.954c32.402 28.623 48.166 65.176 48.166 111.686 0 45.801-15.561 83.209-46.23 111.182-15.131 13.846-32.197 23.766-50.715 29.535-17.699 6.012-42.137 9.045-72.844 9.045h-33.5c-13.549 0-24.604-11.035-24.604-24.621v-250.284c0-13.549 10.998-24.604 24.547-24.604h32.719c31.006 0 55.107 2.83 71.652 8.357 17.68 5.545 34.709 15.539 50.809 29.703zM898.636 436.678c4.932 1.1 9.639 2.309 13.883 3.723 8.395 2.625 16.656 6.328 24.771 10.609v-293.926c0-51.105-41.912-92.684-93.408-92.684h-269.21c-1.32-5.75-7.629-38.059 10.387-65.92 3.293-5.080 3.498-11.055 1.582-16.322h71.521c7.52 0 13.643-8.598 13.643-19.188s-6.123-19.207-13.643-19.207h-379.034c-7.537 0-13.643 8.617-13.643 19.207s6.105 19.188 13.643 19.188h71.504c-1.918 5.268-1.713 11.26 1.582 16.322 18.070 27.973 11.65 60.412 10.385 65.92h-269.208c-51.498 0-93.391 41.578-93.391 92.684v432.168c0 51.125 41.893 92.701 93.391 92.701h414.32c-1.545-0.873-3.127-1.748-4.43-2.643-0.057-0.037-0.188-0.129-0.242-0.166-1.061-0.764-1.955-1.527-2.922-2.309-0.596-0.447-1.248-0.912-1.787-1.396 0-0.018-0.037-0.055-0.094-0.074-1.172-1.041-2.215-2.104-3.164-3.182-0.092-0.094-0.166-0.225-0.24-0.316-0.299-0.354-0.541-0.707-0.82-1.061-0.445-0.521-0.912-1.080-1.303-1.619-0.166-0.299-0.334-0.578-0.539-0.895-0.316-0.465-0.576-0.912-0.855-1.377-0.131-0.26-0.336-0.521-0.467-0.818-0.223-0.373-0.334-0.764-0.557-1.172-0.299-0.633-0.578-1.229-0.82-1.844-0.074-0.205-0.223-0.428-0.297-0.633-0.111-0.334-0.131-0.596-0.242-0.912-0.373-1.078-0.633-2.121-0.855-3.145-0.074-0.447-0.168-0.912-0.262-1.322-0.186-1.357-0.334-2.697-0.334-3.889 0-2.904 0.445-6.459 1.805-9.902h-395.894c-30.188 0-54.736-24.23-54.736-54.027v-432.168c0-29.777 24.549-54.027 54.736-54.027h750.492c30.186 0 54.754 24.232 54.754 54.027v279.594zM385.752-17.842h165.787c-18.703 31.715-17.215 65.232-14.646 82.242h-136.494c2.568-17.010 4.057-50.527-14.646-82.242z" />
<glyph unicode="&#xf107;" glyph-name="uniF107" d="M376.198 299.106c-5.523 9.564-2.246 21.795 7.32 27.32l50.211 28.992v127.516c0 0.057 0.010 0.115 0.012 0.174 0.008 0.814 0.055 1.631 0.162 2.445 0.010 0.051 0.021 0.1 0.029 0.152 0.102 0.732 0.254 1.459 0.438 2.184 0.051 0.199 0.109 0.395 0.164 0.59 0.172 0.586 0.369 1.164 0.594 1.74 0.078 0.193 0.146 0.389 0.227 0.58 0.311 0.723 0.652 1.436 1.053 2.133 0.002 0.004 0.006 0.006 0.006 0.008 0.4 0.695 0.85 1.348 1.318 1.977 0.125 0.168 0.26 0.326 0.391 0.49 0.385 0.482 0.785 0.943 1.205 1.381 0.143 0.15 0.287 0.297 0.434 0.441 0.531 0.518 1.084 1.010 1.664 1.463 0.041 0.035 0.082 0.074 0.127 0.107 0.65 0.5 1.33 0.949 2.033 1.361 0.049 0.031 0.094 0.068 0.145 0.098l110.436 63.76v57.979c0 11.047 8.955 20 20 20 11.047 0 20-8.953 20-20v-57.979l110.43-63.76c0.049-0.027 0.092-0.063 0.141-0.094 0.705-0.414 1.391-0.865 2.045-1.367 0.033-0.025 0.063-0.057 0.1-0.084 0.59-0.459 1.148-0.959 1.689-1.486 0.145-0.143 0.285-0.287 0.424-0.432 0.42-0.441 0.826-0.904 1.213-1.391 0.127-0.162 0.264-0.318 0.383-0.484 0.473-0.627 0.918-1.279 1.32-1.977 0.004-0.002 0.004-0.006 0.006-0.008 0.402-0.697 0.744-1.41 1.053-2.133 0.082-0.189 0.15-0.385 0.227-0.576 0.225-0.578 0.426-1.158 0.596-1.746 0.055-0.193 0.111-0.385 0.162-0.582 0.188-0.732 0.34-1.463 0.441-2.199 0.008-0.049 0.020-0.092 0.025-0.139 0.109-0.818 0.156-1.633 0.162-2.451 0-0.057 0.012-0.113 0.012-0.17v-127.516l50.219-28.992c9.566-5.523 12.844-17.754 7.324-27.324-3.707-6.416-10.428-10.002-17.34-10.002-3.395 0-6.832 0.861-9.98 2.682l-50.219 28.992-110.43-63.754c-0.049-0.029-0.104-0.049-0.15-0.076-0.713-0.404-1.447-0.77-2.209-1.086-0.041-0.016-0.084-0.027-0.125-0.047-0.691-0.279-1.402-0.514-2.131-0.717-0.193-0.055-0.389-0.102-0.584-0.15-0.594-0.148-1.195-0.264-1.809-0.355-0.207-0.033-0.408-0.070-0.613-0.094-0.779-0.092-1.572-0.154-2.379-0.154-0.803 0-1.594 0.063-2.375 0.154-0.209 0.023-0.414 0.061-0.621 0.094-0.609 0.092-1.207 0.207-1.797 0.354-0.199 0.051-0.398 0.098-0.598 0.154-0.719 0.199-1.42 0.432-2.102 0.707-0.051 0.021-0.104 0.037-0.152 0.057-0.76 0.314-1.492 0.678-2.201 1.080-0.049 0.029-0.105 0.049-0.156 0.078l-110.434 63.754-50.213-28.992c-3.148-1.818-6.59-2.682-9.98-2.682-6.914 0-13.635 3.586-17.34 10.002zM674.592 355.424v92.875l-80.43-46.438v-92.873zM574.162 529.376l-80.434-46.438 80.434-46.439 80.43 46.439zM473.726 448.296v-92.875l80.436-46.436v92.873zM918.438 810.436c58.207 0 105.562-47.355 105.562-105.564v-513.392c0-58.209-47.354-105.566-105.562-105.566h-267.12l44.172-88.348h89.711c11.045 0 20-8.955 20-20 0-11.047-8.955-20-20-20h-444.332c-6.932 0-13.369 3.59-17.012 9.486-3.645 5.896-3.977 13.26-0.877 19.459l49.703 99.404h-267.122c-58.207 0-105.562 47.357-105.562 105.566v513.39c0 58.209 47.355 105.564 105.562 105.564h812.876zM105.562 770.436c-29.178 0-53.957-19.166-62.436-45.566h937.742c-8.475 26.4-33.254 45.566-62.432 45.566h-812.876zM40 684.872v-473.39h84.324v473.39h-84.324zM373.228-2.436h277.542l-44.174 88.348h-189.195zM918.438 125.912c29.178 0 53.955 19.166 62.43 45.566h-937.74c8.477-26.4 33.258-45.566 62.436-45.566h812.876zM984 211.48v473.39h-819.676v-473.39h819.676zM229.578 601.996c-11.045 0-20 8.955-20 20 0 11.047 8.955 20 20 20h102.070c11.047 0 20-8.953 20-20 0-11.045-8.955-20-20-20h-102.070zM389.11 601.996c-11.049 0-20 8.955-20 20 0 11.047 8.953 20 20 20h0.477c11.043 0 20-8.953 20-20 0-11.045-8.957-20-20-20h-0.477zM843.134-2.428c11.047 0 20-8.955 20-20 0-11.047-8.955-20-20-20h-0.475c-11.043 0-20 8.953-20 20 0 11.045 8.957 20 20 20h0.475z" />
<glyph unicode="&#xf108;" glyph-name="uniF108" d="M797.044 885.496c125.184 0 226.956-101.818 226.956-226.978s-101.771-226.978-226.956-226.978c-18.791 0-36.965 2.549-54.422 6.883v-378.336l-322.724-177.582-419.898 99.104v507.452l3.168-0.668-2.764 5.264 311.698 164.887 264.728-53.969c-4.264 17.338-6.74 35.344-6.74 53.969 0 125.16 101.795 226.956 226.956 226.956zM398.748-87.297v467.702l-376.432 81.025v-462.032zM418.802 398.91l207.33 110.703c-17.578 20.172-31.654 43.49-41.299 69.021l-269.16 54.852-285.354-150.955zM705.42 567.56c45.992 0 72.262 24.865 72.238 56.326 0 25.104-18.291 42.252-40.848 46.254v0.572c22.865 8.002 34.273 23.984 34.273 43.395 0 24.27-19.768 45.42-58.018 45.42-22.246 0-42.848-6.859-53.398-14.291l7.955-25.412c7.717 5.145 22.863 11.717 37.988 11.717 20.291 0 29.723-10.598 29.723-23.15 0-18.553-20.578-26.008-36.869-26.008h-15.695v-25.699h16.314c21.436 0 41.99-9.408 41.99-31.414 0.311-14.553-10.551-29.701-37.416-29.701-17.674 0-35.084 7.121-42.229 11.408l-8.002-26.555c10.002-6.574 29.438-12.861 51.992-12.861zM938.138 594.972c18.268 16.578 29.938 42.301 30.033 76.525 0 32.844-11.432 55.686-29.961 70.832-17.721 14.863-42.562 22.293-78.574 22.293-20.84 0-40.633-1.428-56.018-4v-189.371c11.385-1.43 26.865-2.572 47.396-2.572 37.439 0 67.975 8.883 87.123 26.293zM862.732 737.234c43.943 0 68.57-24.27 68.262-66.832 0-48.85-27.152-73.977-72.857-73.689-7.121 0-14.553 0-19.412 0.857v137.662c4.859 1.145 12.838 2.002 24.008 2.002z" />
<glyph unicode="&#xf109;" glyph-name="uniF109" d="M0 234l212-120v-242l-196.883 113.361c-9.35 5.342-15.117 15.283-15.117 26.049v222.59zM272 114l210 120v-240l-210-122v242zM542 234l210-120v-242l-210 122v240zM812 114l212 120v-222.59c0-10.766-5.768-20.705-15.117-26.049l-196.883-113.361v242zM782 414l233.508-115.752-233.508-132.301-231.508 132.301zM525.418 892.834l218.090-114.584-231.508-132.303-231.508 132.301 218.090 114.586c8.447 4.223 18.389 4.223 26.836 0zM272 714l210-120v-232.91l-210 105v247.91zM242 414l231.508-115.752-231.508-132.301-233.508 132.301zM542 594l210 120v-247.91l-210-105v232.91z" />
<glyph unicode="&#xf10a;" glyph-name="uniF10A" d="M995.698 716.542c16.422-3.131 28.303-17.49 28.303-34.213v-536.82c0-10.381-4.631-20.221-12.629-26.838-6.297-5.205-14.164-7.992-22.201-7.992-2.172 0-4.357 0.207-6.527 0.617-144.617 27.586-290.178 42.371-435.808 44.408v-80.506h137.578c19.234 0 34.828-15.596 34.828-34.83 0-19.236-15.594-34.83-34.828-34.83h-344.816c-19.236 0-34.83 15.594-34.83 34.83 0 19.234 15.594 34.83 34.83 34.83h137.578v80.506c-145.633-2.037-291.196-16.822-435.816-44.408-10.207-1.943-20.732 0.76-28.729 7.379-7.998 6.615-12.629 16.457-12.629 26.838v536.816c0 16.723 11.881 31.082 28.303 34.213 320.96 61.227 646.434 61.227 967.394 0zM954.34 187.271v466.078c-293.664 52.59-591.010 52.594-884.68 0v-466.078c293.76 51.168 590.93 51.168 884.68 0zM564.924 304.3c-19.232 0-34.83 15.594-34.83 34.83v241.876c0 19.236 15.596 34.83 34.83 34.83h125.869c56.496 0 102.459-45.963 102.459-102.459v-106.619c0-56.496-45.963-102.459-102.459-102.459h-125.869zM599.754 546.178v-172.217h91.039c18.084 0 32.799 14.715 32.799 32.799v106.619c0 18.084-14.715 32.799-32.799 32.799h-91.039zM416.772 617.758c38.105 0 69.107-31.006 69.107-69.107v-54.299c0-12.479-3.375-24.164-9.184-34.279 5.809-10.115 9.184-21.801 9.184-34.277v-54.301c0-38.105-31.002-69.107-69.107-69.107h-94.59c-19.236 0-34.83 15.594-34.83 34.83 0 19.234 15.594 34.83 34.83 34.83h94.041v53.195h-94.041c-19.236 0-34.83 15.596-34.83 34.83 0 19.236 15.594 34.83 34.83 34.83h94.041v53.195h-94.041c-19.236 0-34.83 15.596-34.83 34.83 0 19.236 15.594 34.83 34.83 34.83h94.59z" />
<glyph unicode="&#xf10b;" glyph-name="uniF10B" d="M660.704 896h3.369c93.379-72.734 321.422-256.388 321.422-256.388s-49.096-414.262-68.35-581.284c-220.77-61.877-439.238-126.055-661.614-186.328-19.787 65.996-143.916 401.802-143.916 401.802s-53.375 404.69-73.162 540.104c206.382 28.453 416.99 52.572 622.25 82.094zM645.3 834.444c-179-24.441-359.498-47.385-540.21-70.061 11.23-29.842 24.334-57.812 35.939-87.227 111.133 17.168 228.418 32.303 341.958 49.631 16.686 2.514 39.041 9.197 49.576 6.791 9.787-2.246 27.865-23.691 37.598-34.229 38.773-41.715 70.221-77.064 109.422-111.133 74.178 14.707 151.031 26.74 225.636 41.020-79.473 68.777-173.545 137.715-259.918 205.208zM539.356 576.344c-120.119-17.809-246.494-44.174-370.998-63.268 10.482-33.961 23.533-65.354 35.887-97.441 68.67 10.535 132.793 25.562 200.018 37.65 19.629-28.293 33.373-62.412 54.658-88.939 70.756 15.938 143.008 30.217 213.71 46.154-39.096 53.695-87.764 112.631-133.275 165.844zM443.624 229.252c-5.135 9.52-18.719 50.809-29.041 47.867-52.357-14.762-121.668-26.902-181.246-41.021 7.113-32.248 23.424-70.059 34.227-104.287 69.258 13.959 133.115 33.266 201.678 47.918-5.938 17.811-15.67 30.912-25.617 49.523z" />
<glyph unicode="&#xf10c;" glyph-name="uniF10C" d="M512 682.792c23.584 0 42.797-19.209 42.797-42.793s-19.209-42.793-42.793-42.793c-15.361 0-28.25 8.592-35.801 20.791-241.124-5.338-278.922-138.371-283.428-198.268 12.141-7.564 20.686-20.412 20.686-35.73 0-23.584-19.209-42.793-42.793-42.793s-42.791 19.209-42.791 42.793c0 15.9 9.115 29.262 22.035 36.641 7.033 116.564 95.771 235.172 325.578 240.308 7.406 12.809 20.691 21.844 36.51 21.844zM888 464.666c7.063-5.666 9.787-15.193 6.787-23.734-3-8.539-11.063-14.27-20.125-14.27h-117.75l-78.916-98.666c-4.146-5.146-10.313-8-16.666-8-2.354 0-4.75 0.396-7.063 1.207-8.539 3-14.27 11.064-14.27 20.127v277.334c0 8.209 4.707 15.668 12.084 19.23 7.355 3.563 16.146 2.584 22.584-2.563zM938.666 853.334c47.041 0 85.334-38.271 85.336-85.334v-597.334c0-47.064-38.291-85.334-85.334-85.334h-298.738c0.93-34.105 7.473-88.629 31.82-114.209 8.916-9.416 19.166-13.791 32.25-13.791 11.793 0 21.334-9.543 21.334-21.334 0-11.793-9.541-21.334-21.334-21.334h-384c-11.793 0-21.334 9.541-21.334 21.334 0 11.791 9.541 21.334 21.334 21.334 13.084 0 23.334 4.396 32.293 13.813 24.406 25.707 30.906 80.152 31.803 114.188h-298.762c-47.041 0-85.334 38.271-85.334 85.334v597.334c0 47.062 38.293 85.334 85.334 85.334h853.332zM512 127.873c23.584 0 42.793 19.209 42.793 42.793s-19.209 42.791-42.793 42.791-42.793-19.207-42.793-42.791 19.209-42.793 42.793-42.793zM85.334 256h853.37l-0.035 512h-853.334v-512z" />
<glyph unicode="&#xf10d;" glyph-name="uniF10D" d="M994 534h-95.16c-3.963-11.174-10.068-21.34-17.83-30 7.762-8.66 13.867-18.826 17.83-30h95.16c16.568 0 30-13.432 30-30v-180c0-16.568-13.432-30-30-30h-95.16c-12.385-34.916-45.73-60-84.84-60h-30v-210c0-16.568-13.432-30-30-30h-484c-16.568 0-30 13.432-30 30v210h-30c-39.109 0-72.455 25.084-84.84 60h-95.16c-16.568 0-30 13.432-30 30v180c0 16.568 13.432 30 30 30h95.16c3.963 11.174 10.068 21.34 17.83 30-7.762 8.66-13.867 18.826-17.83 30h-95.16c-16.568 0-30 13.432-30 30v180c0 16.568 13.432 30 30 30h95.16c12.385 34.918 45.73 60 84.84 60h604c39.109 0 72.455-25.082 84.84-60h95.16c16.568 0 30-13.432 30-30v-180c0-16.568-13.432-30-30-30zM904 714v-120h60v120h-60zM120 594v120h-60v-120h60zM120 294v120h-60v-120h60zM240 444c0 10.516 1.83 20.811 5.16 30.199h-35.16c-16.543 0-30-13.656-30-30.199v-180c0-16.543 13.457-30 30-30h30v210zM724-6v450c0 16.543-13.453 30-29.994 30h-364.006c-16.545 0-30-13.457-30-30v-450h424zM844 264v180c0 16.543-13.457 30-30 30h-35.16c3.33-9.391 5.16-19.484 5.16-30v-210h30c16.543 0 30 13.457 30 30zM844 564v180c0 16.543-13.457 30-30 30h-604c-16.543 0-30-13.457-30-30v-180c0-16.543 13.457-30 30-30h604c16.543 0 30 13.457 30 30zM904 414v-120h60v120h-60z" />
<glyph unicode="&#xf10e;" glyph-name="uniF10E" d="M1006.346 790.068c9.744 0 17.654-7.891 17.654-17.654v-776.828c0-9.764-7.91-17.654-17.654-17.654h-988.692c-9.744 0-17.654 7.891-17.654 17.654v776.828c0 9.764 7.91 17.654 17.654 17.654h988.692zM176.551 13.242v158.896h-141.24v-158.896h141.24zM176.551 207.45v158.896h-141.24v-158.896h141.24zM176.551 401.654v158.896h-141.24v-158.896h141.24zM176.551 595.862v158.896h-141.24v-158.896h141.24zM645.066 369.1c5.086 3.248 8.176 8.863 8.176 14.9s-3.090 11.652-8.158 14.9l-194.207 123.586c-5.455 3.443-12.34 3.674-17.99 0.584-5.648-3.107-9.162-9.039-9.162-15.484v-247.172c0-6.445 3.514-12.377 9.162-15.484 2.648-1.447 5.563-2.172 8.492-2.172 3.303 0 6.604 0.938 9.48 2.756zM988.69 13.242v158.896h-141.24v-158.896h141.24zM988.69 207.45v158.896h-141.24v-158.896h141.24zM988.69 401.654v158.896h-141.24v-158.896h141.24zM988.69 595.862v158.896h-141.24v-158.896h141.24z" />
<glyph unicode="&#xf10f;" glyph-name="uniF10F" d="M1022.772 418.132h1.229v-68.266h-1.229c-16.793-255.592-221.046-459.846-476.638-476.638v-1.229h-68.266v1.229c-255.592 16.793-459.912 221.046-476.708 476.638h-1.16v68.266h1.16c16.795 255.592 221.116 459.912 476.708 476.708v1.16h68.266v-1.16c255.592-16.795 459.846-221.116 476.638-476.708zM320.512 784.384c-74.82-35.84-138.035-92.023-182.545-161.451h102.264c19.934 62.668 47.309 117.623 80.281 161.451zM102.264 554.666c-17.75-42.529-29.082-88.473-32.699-136.533h135.918c1.844 47.582 7.646 93.389 16.793 136.533h-120.012zM69.564 349.868c3.617-48.061 14.949-94.004 32.699-136.533h120.012c-9.146 43.145-14.949 88.951-16.793 136.533h-135.918zM137.967 145.066c44.51-69.496 107.725-125.611 182.545-161.451-33.041 43.828-60.416 98.783-80.35 161.451h-102.195zM477.868-55.365v200.432h-167.254c36.66-106.291 97.076-181.658 167.254-200.432zM477.868 213.334v136.533h-204.118c1.979-48.061 8.055-94.004 17.68-136.533h186.438zM477.868 418.132v136.533h-186.438c-9.625-42.529-15.701-88.473-17.68-136.533h204.118zM477.868 622.934v200.364c-70.178-18.705-130.594-94.072-167.254-200.364h167.254zM886.034 622.934c-44.51 69.428-107.793 125.611-182.545 161.451 33.109-43.828 60.416-98.783 80.418-161.451h102.127zM546.132 823.296v-200.364h167.254c-36.66 106.291-97.143 181.658-167.254 200.364zM546.132 554.666v-136.533h204.118c-2.115 48.061-8.055 94.004-17.748 136.533h-186.369zM546.132 349.868v-136.533h186.369c9.693 42.529 15.77 88.473 17.748 136.533h-204.118zM546.132-55.365c70.111 18.773 130.594 94.141 167.254 200.432h-167.254v-200.432zM703.488-16.385c74.752 35.84 138.035 91.955 182.545 161.451h-102.127c-20.002-62.668-47.445-117.555-80.418-161.451zM921.736 213.334c17.75 42.529 29.082 88.473 32.631 136.533h-135.85c-1.844-47.582-7.646-93.389-16.793-136.533h120.012zM818.518 418.132h135.918c-3.617 48.061-14.949 94.004-32.699 136.533h-120.012c9.146-43.145 14.949-88.951 16.793-136.533z" />
<glyph unicode="&#xf110;" glyph-name="uniF110" d="M425.408 768.946c34.637 26.645 85.26 1.777 85.26-42.629v-683.852c0-44.406-49.734-69.273-85.26-42.629l-194.498 145.65h-177.623c-29.309 0-53.287 23.971-53.287 53.287v371.234c0 29.307 23.979 53.287 53.287 53.287h177.623zM686.516 681.91c164.301-164.301 164.301-430.736-0.889-593.262-11.537-12.443-28.42-18.652-43.518-18.652s-31.084 5.33-43.51 17.764c-23.979 23.971-23.979 63.936 0 87.914 115.457 115.455 115.457 302.858 0 418.312-23.979 23.979-23.979 63.945 0 87.924 23.971 23.979 63.936 23.979 87.916 0zM755.79 821.346c24.867 23.979 63.943 23.979 87.035-0.889 117.223-117.232 181.166-271.764 181.166-436.956 0-165.189-64.822-320.61-181.166-436.954-11.545-11.545-27.531-17.762-43.518-17.762-15.098 0-31.084 6.225-43.518 18.65-23.971 23.979-23.971 63.943 0 87.924 93.252 93.252 144.771 216.7 144.771 349.030s-51.52 255.778-144.771 349.032c-23.971 23.979-23.971 63.943 0 87.924z" />
<glyph unicode="&#xf111;" glyph-name="uniF111" d="M149.471 445.936c31.381 0 56.98 25.6 56.98 57.807v0.826c0 31.381-25.6 56.98-56.98 56.98h-149.471v41.289c0 27.252 22.297 49.549 49.549 49.549h237.006c23.949 0 45.42 18.168 48.723 42.117l8.258 54.502c3.303 24.775 23.949 43.768 48.723 43.768h237.84c23.949 0 44.594-19.818 48.723-43.768l8.26-54.502c3.295-23.949 23.939-42.117 48.713-42.117h237.832c28.078 0 50.375-22.297 50.375-50.373v-573.936c0-28.904-23.949-52.852-52.852-52.852h-924.902c-25.602 0-46.246 20.645-46.246 46.244v424.464h149.471zM891.872 559.896c-32.207 0-57.807-26.426-57.807-57.807 0-32.205 25.6-57.807 57.807-57.807s57.807 25.602 57.807 57.807c0 32.207-25.6 57.807-57.807 57.807zM514.476 539.252c-136.258 0-247.74-110.658-247.74-247.742s110.656-247.742 247.74-247.742c137.094 0 247.742 110.658 247.742 247.742s-110.648 247.742-247.742 247.742zM388.128 291.51c0 68.412 55.459 123.871 123.871 123.871s123.871-55.459 123.871-123.871-55.459-123.871-123.871-123.871-123.871 55.459-123.871 123.871z" />
</font></defs></svg>